<svg width="375" height="812" viewBox="0 0 375 812" fill="none" xmlns="http://www.w3.org/2000/svg">
<path d="M655 439.13V1049.67H418.371L403.968 940.449C318.396 1034.36 194.062 1084.35 66.5145 1076.12C-3.65865 1076.68 -73.3595 1064.73 -139.25 1040.85C-203.047 1017.51 -261.723 982.273 -312.092 937.057C-365.486 887.674 -406.773 826.884 -432.806 759.323C-463.566 679.193 -478.693 594.024 -477.389 508.324C-484.626 348.871 -427.367 193.131 -318.264 75.5207C-205.82 -37.164 -50.156 -97.1199 109.725 -89.3244C236.333 -93.317 360.735 -55.8801 463.639 17.1805C561.773 91.0262 625.783 200.78 641.282 321.771H292.169C273.536 235.054 192.931 175.334 103.552 182.026C38.0715 179.2 -23.549 212.681 -56.2581 268.858C-95.4972 341.995 -113.984 424.276 -109.757 506.967C-109.757 707.314 -31.3378 807.487 125.5 807.487C167.143 806.759 207.666 794.028 242.1 770.855C276.159 750.339 300.77 717.477 310.688 679.274H151.564V439.13H655Z" stroke="black"/>
</svg>
